<?xml version="1.0" encoding="UTF-8" standalone="no"?>
<svg
   xmlns:dc="http://purl.org/dc/elements/1.1/"
   xmlns:cc="http://creativecommons.org/ns#"
   xmlns:rdf="http://www.w3.org/1999/02/22-rdf-syntax-ns#"
   xmlns:svg="http://www.w3.org/2000/svg"
   xmlns="http://www.w3.org/2000/svg"
   xmlns:sodipodi="http://sodipodi.sourceforge.net/DTD/sodipodi-0.dtd"
   xmlns:inkscape="http://www.inkscape.org/namespaces/inkscape"
   width="1422.485mm"
   height="1027.8967mm"
   viewBox="0 0 5040.3011 3642.1537"
   id="svg2"
   version="1.1"
   inkscape:version="0.91 r13725"
   sodipodi:docname="diagram.svg">
  <sodipodi:namedview
     pagecolor="#ffffff"
     bordercolor="#666666"
     borderopacity="1"
     objecttolerance="10"
     gridtolerance="10"
     guidetolerance="10"
     inkscape:pageopacity="0"
     inkscape:pageshadow="2"
     inkscape:window-width="1920"
     inkscape:window-height="1043"
     id="namedview7734"
     showgrid="false"
     inkscape:zoom="0.1832731"
     inkscape:cx="1637.6674"
     inkscape:cy="1621.4011"
     inkscape:window-x="0"
     inkscape:window-y="0"
     inkscape:window-maximized="1"
     inkscape:current-layer="svg2"
     inkscape:object-nodes="true" />
  <defs
     id="defs4" />
  <metadata
     id="metadata7">
    <rdf:RDF>
      <cc:Work
         rdf:about="">
        <dc:format>image/svg+xml</dc:format>
        <dc:type
           rdf:resource="http://purl.org/dc/dcmitype/StillImage" />
        <dc:title />
      </cc:Work>
    </rdf:RDF>
  </metadata>
  <rect
     ry="0"
     y="6.2456937e-05"
     x="0"
     height="3642.1538"
     width="5040.3013"
     id="rect4279"
     style="opacity:1;fill:#ffffff;fill-opacity:1;fill-rule:nonzero;stroke:none;stroke-width:4.27600002;stroke-linecap:butt;stroke-linejoin:miter;stroke-miterlimit:4;stroke-dasharray:none;stroke-dashoffset:0;stroke-opacity:1" />
  <g
     id="layer1"
     transform="translate(11075.554,2629.8398)">
    <path
       id="path4939"
       d="m -8095.4096,-344.9714 -1029.811,0"
       style="fill:none;fill-rule:evenodd;stroke:#000000;stroke-width:7.52406931;stroke-linecap:butt;stroke-linejoin:miter;stroke-miterlimit:4;stroke-dasharray:15.04813905, 7.52406952;stroke-dashoffset:0;stroke-opacity:1" />
    <path
       style="fill:none;fill-rule:evenodd;stroke:#000000;stroke-width:7.52406931;stroke-linecap:butt;stroke-linejoin:miter;stroke-miterlimit:4;stroke-dasharray:15.04813905, 7.52406952;stroke-dashoffset:0;stroke-opacity:1"
       d="m -8095.7506,-1109.7335 -1048.818,0"
       id="path4941" />
    <path
       style="fill:none;fill-rule:evenodd;stroke:#000000;stroke-width:7.52406931;stroke-linecap:butt;stroke-linejoin:miter;stroke-miterlimit:4;stroke-dasharray:15.04813905, 7.52406952;stroke-dashoffset:0;stroke-opacity:1"
       d="m -8096.1176,419.79056 -1029.057,0"
       id="path4515-6" />
    <g
       id="g4869"
       transform="matrix(0.37620348,0,0,0.37620348,-10892.383,-1323.6352)">
      <text
         id="text4414"
         y="-3092.9714"
         x="10152.749"
         style="font-style:normal;font-variant:normal;font-weight:bold;font-stretch:normal;font-size:375px;line-height:125%;font-family:Sans;-inkscape-font-specification:'Sans Bold';text-align:center;letter-spacing:0px;word-spacing:0px;text-anchor:middle;fill:#000000;fill-opacity:1;stroke:none;stroke-width:1px;stroke-linecap:butt;stroke-linejoin:miter;stroke-opacity:1"
         xml:space="preserve"><tspan
           y="-3092.9714"
           x="10152.749"
           id="tspan4416">CloudCAST Kernel</tspan></text>
      <g
         id="g4817">
        <rect
           style="opacity:1;fill:none;fill-opacity:1;fill-rule:nonzero;stroke:#000000;stroke-width:20;stroke-linecap:butt;stroke-linejoin:miter;stroke-miterlimit:4;stroke-dasharray:none;stroke-dashoffset:0;stroke-opacity:1"
           id="rect4412"
           width="5088.8765"
           height="8970.4707"
           x="7717.8496"
           y="-2865.3904"
           ry="323.24899" />
        <g
           id="g4418"
           transform="translate(16583.854,0)">
          <path
             style="fill:none;fill-rule:evenodd;stroke:#000000;stroke-width:20;stroke-linecap:butt;stroke-linejoin:miter;stroke-miterlimit:4;stroke-dasharray:40, 20;stroke-dashoffset:0;stroke-opacity:1"
             d="m -5102.8571,1240.9336 c 0,0 -2822.577,-120.2433 -3572.6045,1131.0171"
             id="path4982" />
          <path
             id="path4297"
             d="m -8684.3684,2836.5945 c 799.565,1274.6629 3621.5113,1084.3392 3621.5113,1084.3392"
             style="fill:none;fill-rule:evenodd;stroke:#000000;stroke-width:20;stroke-linecap:butt;stroke-linejoin:miter;stroke-miterlimit:4;stroke-dasharray:40, 20;stroke-dashoffset:0;stroke-opacity:1" />
          <g
             id="g4561">
            <path
               style="fill:none;fill-rule:evenodd;stroke:#000000;stroke-width:20;stroke-linecap:butt;stroke-linejoin:miter;stroke-miterlimit:4;stroke-dasharray:40, 20;stroke-dashoffset:0;stroke-opacity:1"
               d="m -6992.4354,2602.8655 -1851.4867,0"
               id="path4398" />
            <circle
               r="231.42857"
               cy="2601.4214"
               cx="-8866.1377"
               id="circle4138"
               style="opacity:1;fill:#d5d5d5;fill-opacity:1;fill-rule:nonzero;stroke:#000000;stroke-width:21.39999962;stroke-linecap:butt;stroke-linejoin:miter;stroke-miterlimit:4;stroke-dasharray:none;stroke-dashoffset:0;stroke-opacity:1" />
            <rect
               ry="323.24881"
               y="2116.5481"
               x="-7647.8911"
               height="969.74646"
               width="1729.3811"
               id="rect4146"
               style="opacity:1;fill:#ffae47;fill-opacity:1;fill-rule:nonzero;stroke:#000000;stroke-width:21.39999962;stroke-linecap:butt;stroke-linejoin:miter;stroke-miterlimit:4;stroke-dasharray:none;stroke-dashoffset:0;stroke-opacity:1" />
            <text
               xml:space="preserve"
               style="font-style:normal;font-variant:normal;font-weight:bold;font-stretch:normal;font-size:250px;line-height:125%;font-family:Sans;-inkscape-font-specification:'Sans Bold';text-align:center;letter-spacing:0px;word-spacing:0px;text-anchor:middle;fill:#000000;fill-opacity:1;stroke:none;stroke-width:1px;stroke-linecap:butt;stroke-linejoin:miter;stroke-opacity:1"
               x="-6785.9473"
               y="2692.5469"
               id="text4327"><tspan
                 style="font-style:normal;font-variant:normal;font-weight:normal;font-stretch:normal;font-family:Sans;-inkscape-font-specification:Sans"
                 id="tspan4329"
                 x="-6785.9473"
                 y="2692.5469">DB</tspan></text>
          </g>
          <g
             id="g4531">
            <path
               id="path4392"
               d="m -6855.2926,568.57977 -2004.7919,0"
               style="fill:none;fill-rule:evenodd;stroke:#000000;stroke-width:20;stroke-linecap:butt;stroke-linejoin:miter;stroke-miterlimit:4;stroke-dasharray:40, 20;stroke-dashoffset:0;stroke-opacity:1" />
            <circle
               style="opacity:1;fill:#d5d5d5;fill-opacity:1;fill-rule:nonzero;stroke:#000000;stroke-width:21.39999962;stroke-linecap:butt;stroke-linejoin:miter;stroke-miterlimit:4;stroke-dasharray:none;stroke-dashoffset:0;stroke-opacity:1"
               id="path4136"
               cx="-8866.1377"
               cy="568.57977"
               r="231.42857" />
            <g
               id="g4410">
              <path
                 style="fill:none;fill-rule:evenodd;stroke:#000000;stroke-width:20;stroke-linecap:butt;stroke-linejoin:miter;stroke-miterlimit:4;stroke-dasharray:40, 20;stroke-dashoffset:0;stroke-opacity:1"
                 d="M -4863.3163,136.2345 -6217.5159,568.57976"
                 id="path4307" />
              <path
                 id="path4309"
                 d="m -4863.3161,568.57983 -1354.1998,-7e-5"
                 style="fill:none;fill-rule:evenodd;stroke:#000000;stroke-width:20;stroke-linecap:butt;stroke-linejoin:miter;stroke-miterlimit:4;stroke-dasharray:40, 20;stroke-dashoffset:0;stroke-opacity:1" />
              <path
                 style="fill:none;fill-rule:evenodd;stroke:#000000;stroke-width:20;stroke-linecap:butt;stroke-linejoin:miter;stroke-miterlimit:4;stroke-dasharray:40, 20;stroke-dashoffset:0;stroke-opacity:1"
                 d="M -4863.3163,1000.925 -6217.5159,568.57976"
                 id="path4311" />
              <g
                 id="g4393">
                <g
                   id="g4162"
                   transform="matrix(0.4993639,0,0,0.4993639,-2098.0377,-655.61815)">
                  <circle
                     style="opacity:1;fill:#0021c8;fill-opacity:1;fill-rule:nonzero;stroke:#0021c8;stroke-width:21.39999962;stroke-linecap:butt;stroke-linejoin:miter;stroke-miterlimit:4;stroke-dasharray:none;stroke-dashoffset:0;stroke-opacity:1"
                     id="circle4150"
                     cx="-5537.6021"
                     cy="1585.7227"
                     r="231.42857" />
                </g>
                <g
                   transform="matrix(0.4993639,0,0,0.4993639,-2098.0377,-223.27284)"
                   id="g4175">
                  <circle
                     r="231.42857"
                     cy="1585.7227"
                     cx="-5537.6021"
                     id="circle4177"
                     style="opacity:1;fill:#0021c8;fill-opacity:1;fill-rule:nonzero;stroke:#0021c8;stroke-width:21.39999962;stroke-linecap:butt;stroke-linejoin:miter;stroke-miterlimit:4;stroke-dasharray:none;stroke-dashoffset:0;stroke-opacity:1" />
                </g>
                <g
                   id="g4179"
                   transform="matrix(0.4993639,0,0,0.4993639,-2098.0377,209.0724)">
                  <circle
                     style="opacity:1;fill:#0021c8;fill-opacity:1;fill-rule:nonzero;stroke:#0021c8;stroke-width:21.39999962;stroke-linecap:butt;stroke-linejoin:miter;stroke-miterlimit:4;stroke-dasharray:none;stroke-dashoffset:0;stroke-opacity:1"
                     id="circle4181"
                     cx="-5537.6021"
                     cy="1585.7227"
                     r="231.42857" />
                </g>
                <ellipse
                   style="opacity:1;fill:none;fill-opacity:1;fill-rule:nonzero;stroke:#000000;stroke-width:20;stroke-linecap:butt;stroke-linejoin:miter;stroke-miterlimit:4;stroke-dasharray:40, 20;stroke-dashoffset:0;stroke-opacity:1"
                   id="path4269"
                   cx="-4863.3159"
                   cy="568.57983"
                   rx="394.28568"
                   ry="834.28571" />
              </g>
              <rect
                 ry="323.24881"
                 y="83.706512"
                 x="-7672.1353"
                 height="969.74646"
                 width="1729.3811"
                 id="rect4144"
                 style="opacity:1;fill:#ffae47;fill-opacity:1;fill-rule:nonzero;stroke:#000000;stroke-width:21.39999962;stroke-linecap:butt;stroke-linejoin:miter;stroke-miterlimit:4;stroke-dasharray:none;stroke-dashoffset:0;stroke-opacity:1" />
              <text
                 xml:space="preserve"
                 style="font-style:normal;font-variant:normal;font-weight:bold;font-stretch:normal;font-size:250px;line-height:125%;font-family:Sans;-inkscape-font-specification:'Sans Bold';text-align:center;letter-spacing:0px;word-spacing:0px;text-anchor:middle;fill:#000000;fill-opacity:1;stroke:none;stroke-width:1px;stroke-linecap:butt;stroke-linejoin:miter;stroke-opacity:1"
                 x="-6798.8999"
                 y="659.58313"
                 id="text4335"><tspan
                   id="tspan4337"
                   x="-6798.8999"
                   y="659.58313"
                   style="font-style:normal;font-variant:normal;font-weight:normal;font-stretch:normal;font-family:Sans;-inkscape-font-specification:Sans">TRAINING</tspan></text>
            </g>
          </g>
          <text
             id="text4283"
             y="-2185.97"
             x="-6809.7031"
             style="font-style:normal;font-variant:normal;font-weight:bold;font-stretch:normal;font-size:250px;line-height:125%;font-family:Sans;-inkscape-font-specification:'Sans Bold';letter-spacing:0px;word-spacing:0px;fill:#000000;fill-opacity:1;stroke:none;stroke-width:1px;stroke-linecap:butt;stroke-linejoin:miter;stroke-opacity:1"
             xml:space="preserve"><tspan
               y="-2185.97"
               x="-6809.7031"
               id="tspan4285"
               style="font-size:250px;text-align:center;text-anchor:middle">SERVERS</tspan></text>
          <text
             xml:space="preserve"
             style="font-style:normal;font-variant:normal;font-weight:bold;font-stretch:normal;font-size:250px;line-height:125%;font-family:Sans;-inkscape-font-specification:'Sans Bold';letter-spacing:0px;word-spacing:0px;fill:#000000;fill-opacity:1;stroke:none;stroke-width:1px;stroke-linecap:butt;stroke-linejoin:miter;stroke-opacity:1"
             x="-4857.8232"
             y="-2185.97"
             id="text4347"><tspan
               style="font-size:250px;text-align:center;text-anchor:middle"
               x="-4857.8232"
               y="-2185.97"
               id="tspan4352">WORKERS</tspan></text>
          <path
             style="opacity:1;fill:#000000;fill-opacity:1;fill-rule:nonzero;stroke:none;stroke-width:21.39999962;stroke-linecap:butt;stroke-linejoin:miter;stroke-miterlimit:4;stroke-dasharray:none;stroke-dashoffset:0;stroke-opacity:1"
             d="m -8708.7398,2420.2857 8.0751,-90.9559 75.6241,55.3204 z"
             id="rect4984" />
          <path
             id="path4987"
             d="m -8709.4756,2785.4217 79.0158,45.7677 -82.1029,45.1494 z"
             style="opacity:1;fill:#000000;fill-opacity:1;fill-rule:nonzero;stroke:none;stroke-width:21.39999962;stroke-linecap:butt;stroke-linejoin:miter;stroke-miterlimit:4;stroke-dasharray:none;stroke-dashoffset:0;stroke-opacity:1" />
          <path
             id="path4989"
             d="m -9103.2435,2601.3732 -79.5655,44.805 2.8253,-93.6556 z"
             style="opacity:1;fill:#000000;fill-opacity:1;fill-rule:nonzero;stroke:none;stroke-width:21.39999962;stroke-linecap:butt;stroke-linejoin:miter;stroke-miterlimit:4;stroke-dasharray:none;stroke-dashoffset:0;stroke-opacity:1" />
          <path
             style="opacity:1;fill:#000000;fill-opacity:1;fill-rule:nonzero;stroke:none;stroke-width:21.39999962;stroke-linecap:butt;stroke-linejoin:miter;stroke-miterlimit:4;stroke-dasharray:none;stroke-dashoffset:0;stroke-opacity:1"
             d="m -9103.2435,570.60257 -79.5655,44.805 2.8253,-93.6556 z"
             id="path4991" />
          <g
             id="g4491">
            <path
               style="fill:none;fill-rule:evenodd;stroke:#000000;stroke-width:20;stroke-linecap:butt;stroke-linejoin:miter;stroke-miterlimit:4;stroke-dasharray:40, 20;stroke-dashoffset:0;stroke-opacity:1"
               d="m -6901.0069,4620.0083 -1991.4025,0"
               id="path4426" />
            <path
               id="path4400"
               d="m -6901.0069,4620.0083 -1991.4025,0"
               style="fill:none;fill-rule:evenodd;stroke:#000000;stroke-width:20;stroke-linecap:butt;stroke-linejoin:miter;stroke-miterlimit:4;stroke-dasharray:40, 20;stroke-dashoffset:0;stroke-opacity:1" />
            <circle
               style="opacity:1;fill:#d5d5d5;fill-opacity:1;fill-rule:nonzero;stroke:#000000;stroke-width:21.39999962;stroke-linecap:butt;stroke-linejoin:miter;stroke-miterlimit:4;stroke-dasharray:none;stroke-dashoffset:0;stroke-opacity:1"
               id="circle4140"
               cx="-8866.1377"
               cy="4634.2627"
               r="231.42857" />
            <path
               style="fill:none;fill-rule:evenodd;stroke:#000000;stroke-width:20;stroke-linecap:butt;stroke-linejoin:miter;stroke-miterlimit:4;stroke-dasharray:40, 20;stroke-dashoffset:0;stroke-opacity:1"
               d="m -4863.3163,4201.9176 -1354.1996,432.3452"
               id="path4313" />
            <path
               id="path4315"
               d="m -4863.3161,4634.2629 -1354.1998,-10e-5"
               style="fill:none;fill-rule:evenodd;stroke:#000000;stroke-width:20;stroke-linecap:butt;stroke-linejoin:miter;stroke-miterlimit:4;stroke-dasharray:40, 20;stroke-dashoffset:0;stroke-opacity:1" />
            <path
               style="fill:none;fill-rule:evenodd;stroke:#000000;stroke-width:20;stroke-linecap:butt;stroke-linejoin:miter;stroke-miterlimit:4;stroke-dasharray:40, 20;stroke-dashoffset:0;stroke-opacity:1"
               d="M -4863.3163,5066.6081 -6217.5159,4634.2628"
               id="path4317" />
            <g
               transform="translate(1017.1429,0)"
               id="g4235">
              <g
                 id="g4183"
                 transform="matrix(0.4993639,0,0,0.4993639,-3115.1806,3410.0649)">
                <circle
                   style="opacity:1;fill:#0021c8;fill-opacity:1;fill-rule:nonzero;stroke:#0021c8;stroke-width:21.39999962;stroke-linecap:butt;stroke-linejoin:miter;stroke-miterlimit:4;stroke-dasharray:none;stroke-dashoffset:0;stroke-opacity:1"
                   id="circle4185"
                   cx="-5537.6021"
                   cy="1585.7227"
                   r="231.42857" />
              </g>
              <g
                 transform="matrix(0.4993639,0,0,0.4993639,-3115.1806,3842.4102)"
                 id="g4187">
                <circle
                   r="231.42857"
                   cy="1585.7227"
                   cx="-5537.6021"
                   id="circle4189"
                   style="opacity:1;fill:#0021c8;fill-opacity:1;fill-rule:nonzero;stroke:#0021c8;stroke-width:21.39999962;stroke-linecap:butt;stroke-linejoin:miter;stroke-miterlimit:4;stroke-dasharray:none;stroke-dashoffset:0;stroke-opacity:1" />
              </g>
              <g
                 id="g4191"
                 transform="matrix(0.4993639,0,0,0.4993639,-3115.1806,4274.7555)">
                <circle
                   style="opacity:1;fill:#0021c8;fill-opacity:1;fill-rule:nonzero;stroke:#0021c8;stroke-width:21.39999962;stroke-linecap:butt;stroke-linejoin:miter;stroke-miterlimit:4;stroke-dasharray:none;stroke-dashoffset:0;stroke-opacity:1"
                   id="circle4193"
                   cx="-5537.6021"
                   cy="1585.7227"
                   r="231.42857" />
              </g>
              <ellipse
                 style="opacity:1;fill:none;fill-opacity:1;fill-rule:nonzero;stroke:#000000;stroke-width:20;stroke-linecap:butt;stroke-linejoin:miter;stroke-miterlimit:4;stroke-dasharray:40, 20;stroke-dashoffset:0;stroke-opacity:1"
                 id="ellipse4271"
                 cx="-5880.459"
                 cy="4634.2627"
                 rx="394.28568"
                 ry="834.28571" />
            </g>
            <rect
               style="opacity:1;fill:#ffae47;fill-opacity:1;fill-rule:nonzero;stroke:#000000;stroke-width:21.39999962;stroke-linecap:butt;stroke-linejoin:miter;stroke-miterlimit:4;stroke-dasharray:none;stroke-dashoffset:0;stroke-opacity:1"
               id="rect4148"
               width="1729.3811"
               height="969.74646"
               x="-7680.2163"
               y="4149.3896"
               ry="323.24881" />
            <text
               id="text4331"
               y="4725.2661"
               x="-6813.6948"
               style="font-style:normal;font-variant:normal;font-weight:bold;font-stretch:normal;font-size:250px;line-height:125%;font-family:Sans;-inkscape-font-specification:'Sans Bold';text-align:center;letter-spacing:0px;word-spacing:0px;text-anchor:middle;fill:#000000;fill-opacity:1;stroke:none;stroke-width:1px;stroke-linecap:butt;stroke-linejoin:miter;stroke-opacity:1"
               xml:space="preserve"><tspan
                 style="font-style:normal;font-variant:normal;font-weight:normal;font-stretch:normal;font-family:Sans;-inkscape-font-specification:Sans"
                 y="4725.2661"
                 x="-6813.6948"
                 id="tspan4333">ASR</tspan></text>
            <path
               id="path4993"
               d="m -9103.2435,4636.2855 -79.5655,44.805 2.8253,-93.6556 z"
               style="opacity:1;fill:#000000;fill-opacity:1;fill-rule:nonzero;stroke:none;stroke-width:21.39999962;stroke-linecap:butt;stroke-linejoin:miter;stroke-miterlimit:4;stroke-dasharray:none;stroke-dashoffset:0;stroke-opacity:1" />
            <path
               id="path4430"
               d="m -4863.3163,4201.9176 -1354.1996,432.3452"
               style="fill:none;fill-rule:evenodd;stroke:#000000;stroke-width:20;stroke-linecap:butt;stroke-linejoin:miter;stroke-miterlimit:4;stroke-dasharray:40, 20;stroke-dashoffset:0;stroke-opacity:1" />
            <path
               style="fill:none;fill-rule:evenodd;stroke:#000000;stroke-width:20;stroke-linecap:butt;stroke-linejoin:miter;stroke-miterlimit:4;stroke-dasharray:40, 20;stroke-dashoffset:0;stroke-opacity:1"
               d="m -4863.3161,4634.2629 -1354.1998,-10e-5"
               id="path4432" />
            <path
               id="path4434"
               d="M -4863.3163,5066.6081 -6217.5159,4634.2628"
               style="fill:none;fill-rule:evenodd;stroke:#000000;stroke-width:20;stroke-linecap:butt;stroke-linejoin:miter;stroke-miterlimit:4;stroke-dasharray:40, 20;stroke-dashoffset:0;stroke-opacity:1" />
            <g
               id="g4436"
               transform="translate(1017.1429,0)">
              <g
                 transform="matrix(0.4993639,0,0,0.4993639,-3115.1806,3410.0649)"
                 id="g4438">
                <circle
                   r="231.42857"
                   cy="1585.7227"
                   cx="-5537.6021"
                   id="circle4440"
                   style="opacity:1;fill:#0021c8;fill-opacity:1;fill-rule:nonzero;stroke:#0021c8;stroke-width:21.39999962;stroke-linecap:butt;stroke-linejoin:miter;stroke-miterlimit:4;stroke-dasharray:none;stroke-dashoffset:0;stroke-opacity:1" />
              </g>
              <g
                 id="g4442"
                 transform="matrix(0.4993639,0,0,0.4993639,-3115.1806,3842.4102)">
                <circle
                   style="opacity:1;fill:#0021c8;fill-opacity:1;fill-rule:nonzero;stroke:#0021c8;stroke-width:21.39999962;stroke-linecap:butt;stroke-linejoin:miter;stroke-miterlimit:4;stroke-dasharray:none;stroke-dashoffset:0;stroke-opacity:1"
                   id="circle4444"
                   cx="-5537.6021"
                   cy="1585.7227"
                   r="231.42857" />
              </g>
              <g
                 transform="matrix(0.4993639,0,0,0.4993639,-3115.1806,4274.7555)"
                 id="g4446">
                <circle
                   r="231.42857"
                   cy="1585.7227"
                   cx="-5537.6021"
                   id="circle4448"
                   style="opacity:1;fill:#0021c8;fill-opacity:1;fill-rule:nonzero;stroke:#0021c8;stroke-width:21.39999962;stroke-linecap:butt;stroke-linejoin:miter;stroke-miterlimit:4;stroke-dasharray:none;stroke-dashoffset:0;stroke-opacity:1" />
              </g>
              <ellipse
                 ry="834.28571"
                 rx="394.28568"
                 cy="4634.2627"
                 cx="-5880.459"
                 id="ellipse4450"
                 style="opacity:1;fill:none;fill-opacity:1;fill-rule:nonzero;stroke:#000000;stroke-width:20;stroke-linecap:butt;stroke-linejoin:miter;stroke-miterlimit:4;stroke-dasharray:40, 20;stroke-dashoffset:0;stroke-opacity:1" />
            </g>
            <rect
               ry="323.24881"
               y="4149.3896"
               x="-7680.2163"
               height="969.74646"
               width="1729.3811"
               id="rect4452"
               style="opacity:1;fill:#ffae47;fill-opacity:1;fill-rule:nonzero;stroke:#000000;stroke-width:21.39999962;stroke-linecap:butt;stroke-linejoin:miter;stroke-miterlimit:4;stroke-dasharray:none;stroke-dashoffset:0;stroke-opacity:1" />
            <text
               xml:space="preserve"
               style="font-style:normal;font-variant:normal;font-weight:bold;font-stretch:normal;font-size:250px;line-height:125%;font-family:Sans;-inkscape-font-specification:'Sans Bold';text-align:center;letter-spacing:0px;word-spacing:0px;text-anchor:middle;fill:#000000;fill-opacity:1;stroke:none;stroke-width:1px;stroke-linecap:butt;stroke-linejoin:miter;stroke-opacity:1"
               x="-6813.6948"
               y="4725.2661"
               id="text4454"><tspan
                 id="tspan4456"
                 x="-6813.6948"
                 y="4725.2661"
                 style="font-style:normal;font-variant:normal;font-weight:normal;font-stretch:normal;font-family:Sans;-inkscape-font-specification:Sans">ASR</tspan></text>
            <path
               style="opacity:1;fill:#000000;fill-opacity:1;fill-rule:nonzero;stroke:none;stroke-width:21.39999962;stroke-linecap:butt;stroke-linejoin:miter;stroke-miterlimit:4;stroke-dasharray:none;stroke-dashoffset:0;stroke-opacity:1"
               d="m -9103.2435,4636.2855 -79.5655,44.805 2.8253,-93.6556 z"
               id="path4458" />
          </g>
          <g
             transform="translate(306.10254,0)"
             id="g4587">
            <path
               id="path4570"
               d="m -7298.5376,-1464.2618 -1851.4868,0"
               style="fill:none;fill-rule:evenodd;stroke:#000000;stroke-width:20;stroke-linecap:butt;stroke-linejoin:miter;stroke-miterlimit:4;stroke-dasharray:40, 20;stroke-dashoffset:0;stroke-opacity:1" />
            <circle
               style="opacity:1;fill:#d5d5d5;fill-opacity:1;fill-rule:nonzero;stroke:#000000;stroke-width:21.39999962;stroke-linecap:butt;stroke-linejoin:miter;stroke-miterlimit:4;stroke-dasharray:none;stroke-dashoffset:0;stroke-opacity:1"
               id="circle4572"
               cx="-9172.2402"
               cy="-1465.7061"
               r="231.42857" />
            <rect
               style="opacity:1;fill:#ffae47;fill-opacity:1;fill-rule:nonzero;stroke:#000000;stroke-width:21.39999962;stroke-linecap:butt;stroke-linejoin:miter;stroke-miterlimit:4;stroke-dasharray:none;stroke-dashoffset:0;stroke-opacity:1"
               id="rect4574"
               width="1729.3811"
               height="969.74646"
               x="-7953.9932"
               y="-1950.5793"
               ry="323.24881" />
            <flowRoot
               transform="matrix(2.658136,0,0,2.658136,-21869.101,-3478.5725)"
               style="font-style:normal;font-weight:normal;font-size:90.30000305px;line-height:125%;font-family:Sans;text-align:center;letter-spacing:0px;word-spacing:0px;text-anchor:middle;fill:#000000;fill-opacity:1;stroke:none;stroke-width:1px;stroke-linecap:butt;stroke-linejoin:miter;stroke-opacity:1"
               id="flowRoot7087"
               xml:space="preserve"><flowRegion
                 id="flowRegion7089"><rect
                   style="font-size:90.30000305px;text-align:center;text-anchor:middle"
                   y="643.67413"
                   x="5261.6182"
                   height="328.40491"
                   width="592.5567"
                   id="rect7091" /></flowRegion><flowPara
                 id="flowPara7093">ACCESS</flowPara><flowPara
                 id="flowPara7095">CONTROL</flowPara></flowRoot>          </g>
          <path
             id="path4594"
             d="m -5102.8571,1240.9336 c 0,0 -2822.577,-120.2433 -3572.6045,1131.0171"
             style="fill:none;fill-rule:evenodd;stroke:#000000;stroke-width:20;stroke-linecap:butt;stroke-linejoin:miter;stroke-miterlimit:4;stroke-dasharray:40, 20;stroke-dashoffset:0;stroke-opacity:1" />
          <path
             id="path4596"
             d="m -8742.8811,-1261.9364 76.6306,49.6584 -84.2562,40.9909 z"
             style="opacity:1;fill:#000000;fill-opacity:1;fill-rule:nonzero;stroke:none;stroke-width:21.39999962;stroke-linecap:butt;stroke-linejoin:miter;stroke-miterlimit:4;stroke-dasharray:none;stroke-dashoffset:0;stroke-opacity:1" />
          <path
             style="fill:none;fill-rule:evenodd;stroke:#000000;stroke-width:20;stroke-linecap:butt;stroke-linejoin:miter;stroke-miterlimit:4;stroke-dasharray:40, 20;stroke-dashoffset:0;stroke-opacity:1"
             d="M -7589.587,115.39328 -8725.1164,-1223.0614"
             id="path4598" />
          <path
             style="opacity:1;fill:#000000;fill-opacity:1;fill-rule:nonzero;stroke:none;stroke-width:21.39999962;stroke-linecap:butt;stroke-linejoin:miter;stroke-miterlimit:4;stroke-dasharray:none;stroke-dashoffset:0;stroke-opacity:1"
             d="m -7561.4829,154.22407 -83.8728,-36.1048 76.1892,-54.539607 z"
             id="path4600" />
          <path
             id="path4604"
             d="M -7599.6511,2158.4072 -8725.1164,-1223.0614"
             style="fill:none;fill-rule:evenodd;stroke:#000000;stroke-width:20;stroke-linecap:butt;stroke-linejoin:miter;stroke-miterlimit:4;stroke-dasharray:40, 20;stroke-dashoffset:0;stroke-opacity:1" />
          <path
             id="path4606"
             d="m -7580.8295,2214.4179 -67.9779,-60.9689 89.6048,-27.3924 z"
             style="opacity:1;fill:#000000;fill-opacity:1;fill-rule:nonzero;stroke:none;stroke-width:21.39999962;stroke-linecap:butt;stroke-linejoin:miter;stroke-miterlimit:4;stroke-dasharray:none;stroke-dashoffset:0;stroke-opacity:1" />
          <path
             id="path4610"
             d="m -7628.6224,4198.7117 -1096.494,-5421.7731"
             style="fill:none;fill-rule:evenodd;stroke:#000000;stroke-width:20;stroke-linecap:butt;stroke-linejoin:miter;stroke-miterlimit:4;stroke-dasharray:40, 20;stroke-dashoffset:0;stroke-opacity:1" />
          <path
             id="path4612"
             d="m -7615.4582,4255.9292 -62.6438,-66.4376 91.5809,-19.8068 z"
             style="opacity:1;fill:#000000;fill-opacity:1;fill-rule:nonzero;stroke:none;stroke-width:21.39999962;stroke-linecap:butt;stroke-linejoin:miter;stroke-miterlimit:4;stroke-dasharray:none;stroke-dashoffset:0;stroke-opacity:1" />
          <g
             id="g4620">
            <rect
               style="opacity:1;fill:#ffffff;fill-opacity:1;fill-rule:nonzero;stroke:none;stroke-width:4.27600002;stroke-linecap:butt;stroke-linejoin:miter;stroke-miterlimit:4;stroke-dasharray:none;stroke-dashoffset:0;stroke-opacity:1"
               id="rect4618"
               width="560.23566"
               height="236.50648"
               x="-9153.6514"
               y="-2395.3486"
               ry="118.25324" />
            <text
               id="text4614"
               y="-2185.97"
               x="-8865.8936"
               style="font-style:normal;font-variant:normal;font-weight:bold;font-stretch:normal;font-size:250px;line-height:125%;font-family:Sans;-inkscape-font-specification:'Sans Bold';letter-spacing:0px;word-spacing:0px;fill:#000000;fill-opacity:1;stroke:none;stroke-width:11.36618805;stroke-linecap:butt;stroke-linejoin:miter;stroke-miterlimit:4;stroke-dasharray:none;stroke-opacity:1"
               xml:space="preserve"><tspan
                 y="-2185.97"
                 x="-8865.8936"
                 id="tspan4616"
                 style="font-size:250px;text-align:center;text-anchor:middle;stroke:none;stroke-width:11.36618805;stroke-miterlimit:4;stroke-dasharray:none;stroke-opacity:1">APIs</tspan></text>
          </g>
        </g>
      </g>
    </g>
    <g
       id="g4770"
       transform="matrix(0.37620348,0,0,0.37620348,-4659.5596,-1323.6352)">
      <text
         xml:space="preserve"
         style="font-style:normal;font-variant:normal;font-weight:bold;font-stretch:normal;font-size:375px;line-height:125%;font-family:Sans;-inkscape-font-specification:'Sans Bold';text-align:center;letter-spacing:0px;word-spacing:0px;text-anchor:middle;fill:#000000;fill-opacity:1;stroke:none;stroke-width:1px;stroke-linecap:butt;stroke-linejoin:miter;stroke-opacity:1"
         x="-13764.453"
         y="-1836.99"
         id="text4421"><tspan
           id="tspan4423"
           x="-13764.453"
           y="-1836.99">Application</tspan><tspan
           id="tspan4425"
           x="-13764.453"
           y="-1368.24">(Exemplar)</tspan></text>
      <g
         id="g4727">
        <rect
           ry="323.24899"
           y="-1140.6293"
           x="-16950.4"
           height="7245.7144"
           width="6634.9946"
           id="rect4427"
           style="opacity:1;fill:none;fill-opacity:1;fill-rule:nonzero;stroke:#000000;stroke-width:20;stroke-linecap:butt;stroke-linejoin:miter;stroke-miterlimit:4;stroke-dasharray:none;stroke-dashoffset:0;stroke-opacity:1" />
        <g
           id="g4686">
          <path
             style="fill:none;fill-rule:evenodd;stroke:#000000;stroke-width:20;stroke-linecap:butt;stroke-linejoin:miter;stroke-miterlimit:4;stroke-dasharray:40, 20;stroke-dashoffset:0;stroke-opacity:1"
             d="m -12797.065,2611.3156 -1849.168,2022.9471"
             id="path8979"
             inkscape:connector-curvature="0"
             sodipodi:nodetypes="cc" />
          <path
             id="path4684"
             d="m -12797.065,4634.2627 -1849.168,0"
             style="fill:none;fill-rule:evenodd;stroke:#000000;stroke-width:20;stroke-linecap:butt;stroke-linejoin:miter;stroke-miterlimit:4;stroke-dasharray:40, 20;stroke-dashoffset:0;stroke-opacity:1" />
          <path
             id="path4678"
             d="M -12797.065,4634.2627 -14646.233,2611.3156"
             style="fill:none;fill-rule:evenodd;stroke:#000000;stroke-width:20;stroke-linecap:butt;stroke-linejoin:miter;stroke-miterlimit:4;stroke-dasharray:40, 20;stroke-dashoffset:0;stroke-opacity:1" />
          <path
             style="fill:none;fill-rule:evenodd;stroke:#000000;stroke-width:20;stroke-linecap:butt;stroke-linejoin:miter;stroke-miterlimit:4;stroke-dasharray:40, 20;stroke-dashoffset:0;stroke-opacity:1"
             d="m -12797.065,2611.3156 -1849.168,0"
             id="path4680" />
          <path
             id="path4682"
             d="M -12797.065,574.84807 -14646.233,2611.3156"
             style="fill:none;fill-rule:evenodd;stroke:#000000;stroke-width:20;stroke-linecap:butt;stroke-linejoin:miter;stroke-miterlimit:4;stroke-dasharray:40, 20;stroke-dashoffset:0;stroke-opacity:1" />
          <path
             id="path4532"
             d="M -12797.065,2601.4214 -14646.233,568.57977"
             style="fill:none;fill-rule:evenodd;stroke:#000000;stroke-width:20;stroke-linecap:butt;stroke-linejoin:miter;stroke-miterlimit:4;stroke-dasharray:40, 20;stroke-dashoffset:0;stroke-opacity:1" />
          <path
             style="fill:none;fill-rule:evenodd;stroke:#000000;stroke-width:20;stroke-linecap:butt;stroke-linejoin:miter;stroke-miterlimit:4;stroke-dasharray:40, 20;stroke-dashoffset:0;stroke-opacity:1"
             d="M -12797.065,4634.2627 -14646.233,568.57977"
             id="path4534" />
          <path
             style="fill:none;fill-rule:evenodd;stroke:#000000;stroke-width:20;stroke-linecap:butt;stroke-linejoin:miter;stroke-miterlimit:4;stroke-dasharray:40, 20;stroke-dashoffset:0;stroke-opacity:1"
             d="m -12194.236,568.57977 -3006.864,0"
             id="path4515" />
          <g
             transform="translate(-4987.765,0)"
             id="g4206-8">
            <ellipse
               ry="456.58893"
               rx="1067.7484"
               cy="568.57977"
               cx="-10560.503"
               id="ellipse4379-0"
               style="opacity:1;fill:#ffffff;fill-opacity:1;fill-rule:nonzero;stroke:#000000;stroke-width:20;stroke-linecap:butt;stroke-linejoin:miter;stroke-miterlimit:4;stroke-dasharray:none;stroke-dashoffset:0;stroke-opacity:1" />
            <text
               id="text4351-5"
               y="659.58319"
               x="-10564.409"
               style="font-style:normal;font-variant:normal;font-weight:bold;font-stretch:normal;font-size:250px;line-height:125%;font-family:Sans;-inkscape-font-specification:'Sans Bold';letter-spacing:0px;word-spacing:0px;fill:#000000;fill-opacity:1;stroke:none;stroke-width:1px;stroke-linecap:butt;stroke-linejoin:miter;stroke-opacity:1"
               xml:space="preserve"><tspan
                 y="659.58319"
                 x="-10564.409"
                 id="tspan4355-7"
                 style="font-style:normal;font-variant:normal;font-weight:normal;font-stretch:normal;font-size:250px;font-family:Sans;-inkscape-font-specification:Sans;text-align:center;text-anchor:middle">DEVELOPER</tspan><tspan
                 id="tspan4455"
                 y="972.08319"
                 x="-10564.409"
                 style="font-style:normal;font-variant:normal;font-weight:normal;font-stretch:normal;font-size:250px;font-family:Sans;-inkscape-font-specification:Sans;text-align:center;text-anchor:middle" /></text>
          </g>
          <g
             id="g4457"
             transform="translate(-4987.765,2032.8416)">
            <ellipse
               style="opacity:1;fill:#ffffff;fill-opacity:1;fill-rule:nonzero;stroke:#000000;stroke-width:20;stroke-linecap:butt;stroke-linejoin:miter;stroke-miterlimit:4;stroke-dasharray:none;stroke-dashoffset:0;stroke-opacity:1"
               id="ellipse4459"
               cx="-10560.503"
               cy="568.57977"
               rx="1067.7484"
               ry="456.58893" />
            <text
               xml:space="preserve"
               style="font-style:normal;font-variant:normal;font-weight:bold;font-stretch:normal;font-size:250px;line-height:125%;font-family:Sans;-inkscape-font-specification:'Sans Bold';letter-spacing:0px;word-spacing:0px;fill:#000000;fill-opacity:1;stroke:none;stroke-width:1px;stroke-linecap:butt;stroke-linejoin:miter;stroke-opacity:1"
               x="-10564.409"
               y="659.58319"
               id="text4461"><tspan
                 style="font-style:normal;font-variant:normal;font-weight:normal;font-stretch:normal;font-size:250px;font-family:Sans;-inkscape-font-specification:Sans;text-align:center;text-anchor:middle"
                 id="tspan4463"
                 x="-10564.409"
                 y="659.58319">PROFESSIONAL</tspan><tspan
                 style="font-style:normal;font-variant:normal;font-weight:normal;font-stretch:normal;font-size:250px;font-family:Sans;-inkscape-font-specification:Sans;text-align:center;text-anchor:middle"
                 x="-10564.409"
                 y="972.08319"
                 id="tspan4465" /></text>
          </g>
          <g
             transform="translate(-4987.765,4065.6829)"
             id="g4467">
            <ellipse
               ry="456.58893"
               rx="1067.7484"
               cy="568.57977"
               cx="-10560.503"
               id="ellipse4469"
               style="opacity:1;fill:#ffffff;fill-opacity:1;fill-rule:nonzero;stroke:#000000;stroke-width:20;stroke-linecap:butt;stroke-linejoin:miter;stroke-miterlimit:4;stroke-dasharray:none;stroke-dashoffset:0;stroke-opacity:1" />
            <text
               id="text4471"
               y="659.58319"
               x="-10564.409"
               style="font-style:normal;font-variant:normal;font-weight:bold;font-stretch:normal;font-size:250px;line-height:125%;font-family:Sans;-inkscape-font-specification:'Sans Bold';letter-spacing:0px;word-spacing:0px;fill:#000000;fill-opacity:1;stroke:none;stroke-width:1px;stroke-linecap:butt;stroke-linejoin:miter;stroke-opacity:1"
               xml:space="preserve"><tspan
                 y="659.58319"
                 x="-10564.409"
                 id="tspan4473"
                 style="font-style:normal;font-variant:normal;font-weight:normal;font-stretch:normal;font-size:250px;font-family:Sans;-inkscape-font-specification:Sans;text-align:center;text-anchor:middle">END USER</tspan><tspan
                 id="tspan4475"
                 y="972.08319"
                 x="-10564.409"
                 style="font-style:normal;font-variant:normal;font-weight:normal;font-stretch:normal;font-size:250px;font-family:Sans;-inkscape-font-specification:Sans;text-align:center;text-anchor:middle" /></text>
          </g>
          <ellipse
             style="opacity:1;fill:#ffffff;fill-opacity:1;fill-rule:nonzero;stroke:#000000;stroke-width:20;stroke-linecap:butt;stroke-linejoin:miter;stroke-miterlimit:4;stroke-dasharray:none;stroke-dashoffset:0;stroke-opacity:1"
             id="ellipse4597"
             cx="-11870.211"
             cy="4634.2627"
             rx="1067.7484"
             ry="456.58893" />
          <g
             transform="translate(-1309.8308,-3.527559e-5)"
             id="g4195">
            <circle
               cy="4634.2627"
               cx="-10560.503"
               id="ellipse4343"
               style="opacity:1;fill:#ffffff;fill-opacity:1;fill-rule:nonzero;stroke:#000000;stroke-width:20;stroke-linecap:butt;stroke-linejoin:miter;stroke-miterlimit:4;stroke-dasharray:none;stroke-dashoffset:0;stroke-opacity:1"
               r="0" />
            <text
               xml:space="preserve"
               style="font-style:normal;font-variant:normal;font-weight:bold;font-stretch:normal;font-size:250px;line-height:125%;font-family:Sans;-inkscape-font-specification:'Sans Bold';letter-spacing:0px;word-spacing:0px;fill:#000000;fill-opacity:1;stroke:none;stroke-width:1px;stroke-linecap:butt;stroke-linejoin:miter;stroke-opacity:1"
               x="-10560.381"
               y="4725.2661"
               id="text4359"><tspan
                 style="font-style:normal;font-variant:normal;font-weight:normal;font-stretch:normal;font-size:250px;font-family:Sans;-inkscape-font-specification:Sans;text-align:center;text-anchor:middle"
                 id="tspan4361"
                 x="-10560.381"
                 y="4725.2661">EXECUTION</tspan></text>
          </g>
          <ellipse
             ry="456.58893"
             rx="1067.7484"
             cy="2601.4214"
             cx="-11870.333"
             id="ellipse4370"
             style="opacity:1;fill:#ffffff;fill-opacity:1;fill-rule:nonzero;stroke:#000000;stroke-width:20;stroke-linecap:butt;stroke-linejoin:miter;stroke-miterlimit:4;stroke-dasharray:none;stroke-dashoffset:0;stroke-opacity:1" />
          <text
             id="text4345"
             y="2534.5269"
             x="-11868.93"
             style="font-style:normal;font-variant:normal;font-weight:bold;font-stretch:normal;font-size:250px;line-height:125%;font-family:Sans;-inkscape-font-specification:'Sans Bold';letter-spacing:0px;word-spacing:0px;fill:#000000;fill-opacity:1;stroke:none;stroke-width:1px;stroke-linecap:butt;stroke-linejoin:miter;stroke-opacity:1"
             xml:space="preserve"><tspan
               y="2534.5269"
               x="-11868.93"
               id="tspan4347"
               style="font-style:normal;font-variant:normal;font-weight:normal;font-stretch:normal;font-size:250px;font-family:Sans;-inkscape-font-specification:Sans;text-align:center;text-anchor:middle">DATA</tspan><tspan
               y="2847.0269"
               x="-11868.93"
               id="tspan4349"
               style="font-style:normal;font-variant:normal;font-weight:normal;font-stretch:normal;font-size:250px;font-family:Sans;-inkscape-font-specification:Sans;text-align:center;text-anchor:middle">MGMT.</tspan></text>
          <g
             transform="translate(-1309.8308,-3.527559e-5)"
             id="g4206">
            <ellipse
               ry="456.58893"
               rx="1067.7484"
               cy="568.57977"
               cx="-10560.503"
               id="ellipse4379"
               style="opacity:1;fill:#ffffff;fill-opacity:1;fill-rule:nonzero;stroke:#000000;stroke-width:20;stroke-linecap:butt;stroke-linejoin:miter;stroke-miterlimit:4;stroke-dasharray:none;stroke-dashoffset:0;stroke-opacity:1" />
            <text
               id="text4351"
               y="659.58319"
               x="-10564.409"
               style="font-style:normal;font-variant:normal;font-weight:bold;font-stretch:normal;font-size:250px;line-height:125%;font-family:Sans;-inkscape-font-specification:'Sans Bold';letter-spacing:0px;word-spacing:0px;fill:#000000;fill-opacity:1;stroke:none;stroke-width:1px;stroke-linecap:butt;stroke-linejoin:miter;stroke-opacity:1"
               xml:space="preserve"><tspan
                 y="659.58319"
                 x="-10564.409"
                 id="tspan4355"
                 style="font-style:normal;font-variant:normal;font-weight:normal;font-stretch:normal;font-size:250px;font-family:Sans;-inkscape-font-specification:Sans;text-align:center;text-anchor:middle">SETUP</tspan></text>
          </g>
          <text
             id="text4187"
             y="-468.54572"
             x="-11861.728"
             style="font-style:normal;font-variant:normal;font-weight:bold;font-stretch:normal;font-size:250px;line-height:125%;font-family:Sans;-inkscape-font-specification:'Sans Bold';letter-spacing:0px;word-spacing:0px;fill:#000000;fill-opacity:1;stroke:none;stroke-width:1px;stroke-linecap:butt;stroke-linejoin:miter;stroke-opacity:1"
             xml:space="preserve"><tspan
               y="-468.54572"
               x="-11861.728"
               id="tspan4189"
               style="font-size:250px;text-align:center;text-anchor:middle">ACTIONS</tspan></text>
          <text
             xml:space="preserve"
             style="font-style:normal;font-variant:normal;font-weight:bold;font-stretch:normal;font-size:250px;line-height:125%;font-family:Sans;-inkscape-font-specification:'Sans Bold';letter-spacing:0px;word-spacing:0px;fill:#000000;fill-opacity:1;stroke:none;stroke-width:1px;stroke-linecap:butt;stroke-linejoin:miter;stroke-opacity:1"
             x="-15539.662"
             y="-468.54572"
             id="text4674"><tspan
               style="font-size:250px;text-align:center;text-anchor:middle"
               id="tspan4676"
               x="-15539.662"
               y="-468.54572">USERS</tspan></text>
        </g>
      </g>
    </g>
  </g>
  <path
     style="opacity:1;fill:#000000;fill-opacity:1;fill-rule:nonzero;stroke:none;stroke-width:21.39999962;stroke-linecap:butt;stroke-linejoin:miter;stroke-miterlimit:4;stroke-dasharray:none;stroke-dashoffset:0;stroke-opacity:1"
     d="m 4517.5464,2778.8292 -27.8319,20.1368 -2.9335,-35.1273 z"
     id="path4987-9"
     inkscape:connector-curvature="0" />
</svg>
